\relax 
\@writefile{toc}{\contentsline {section}{\numberline {1}Sampling from distributions}{1}}
\@writefile{toc}{\contentsline {section}{\numberline {2}Frequency of recessive allele}{1}}
\@writefile{toc}{\contentsline {section}{\numberline {3}Running mice}{1}}
