5 0.00465895466657078
5 0.013942369565688
5 0.000911822319267916
5 0.0336885501701428
5 0.00653323250210709
5 0.00601576008080265
5 6.8527187556874e-05
5 0.0761258127067145
5 0.00694656180524725
5 0.00079576473991396
5 0.0069091472868311
5 0.00596836993370544
5 0.000882883455518777
5 0.000553984910071152
5 0.0111661049996144
5 0.00869461050902421
5 0.00453305587392512
5 0.038555733511579
5 0.00635157734808591
5 0.0124919390616348
5 0.0117046415253499
5 0.00575071128791909
5 0.011545062587638
5 0.0777081046093937
5 0.00651628322053889
5 3.4296504133511e-05
5 0.00200513854626682
5 0.00411783611179177
5 0.00868481145127597
5 0.0168060842929683
5 0.0299070947512199
5 0.037043389874903
5 0.0487010335423203
5 0.00254308457379007
5 0.0131927745820574
5 0.0228263692057561
5 0.00173773665599688
5 0.00266378109244432
5 0.0392132641163187
5 0.0101933576422181
5 0.00807616871070004
5 0.0286543551354896
5 0.00815612467140554
5 0.000788573228588333
5 0.0051596092233833
5 0.00805878787669323
5 0.00805591005190854
5 0.00269279126073249
5 0.000189351505850934
5 0.00381417892750014
5 0.0532721487721346
5 0.0160092842227145
5 0.0050744975862819
5 0.00176594029203963
5 0.0426369204780839
5 0.0127708374752704
5 0.00020119112132547
5 0.00839653004157542
5 0.000779938336870684
5 0.0639021318213423
5 0.0420381656781502
5 0.00034765235124836
5 0.0745028525444308
5 0.0549226140170363
5 0.00202513145270552
5 0.0120973325684878
5 0.0013873710207238
5 0.000167930920023821
5 0.000546363007744499
5 0.00818297748536773
5 0.0377454310926096
5 0.0245536120694212
5 0.0255282937789069
5 0.00257029389935423
5 0.000459216925279852
5 0.0043519611890387
5 0.014856979485611
5 0.00645653192960072
5 0.015239912239
5 0.00589656475591057
5 0.0119171441239885
5 0.0018931489340943
5 0.0157481352400766
5 0.00197583980176046
5 0.0265010723715812
5 0.00305630072776519
5 0.0340578002263731
5 0.00400295810635189
5 0.0140447938012419
5 0.0501424896241851
5 0.0480978392584617
5 7.49531525381614e-06
5 0.000454909145491668
5 0.0298729573066178
5 0.0351292150729667
5 0.0153152348057356
5 0.000230745622942031
5 0.000651433583521378
5 0.0224452703438616
5 0.000682768841791095
5 0.00206220255936588
5 0.023974009299415
5 0.00227695681922215
5 0.0136475905855951
5 0.00689665500295612
5 0.000478994059170285
5 0.00565535561171696
5 0.00187689696275774
5 0.00697890357118376
5 0.00558671280131775
5 0.00380270921475576
5 0.0045493257835699
5 0.00444098531579708
5 0.00139699882355834
5 0.00952404693391081
5 0.00218003349932222
5 0.00279283687805785
5 0.000491015484702304
5 0.00720885357454935
5 0.0131140661031137
5 0.00330476375262436
5 0.00324127971822477
5 0.00164280018708339
5 0.0385902431794138
5 0.000265677881858715
5 0.00115174023366659
5 0.000587724889968796
5 0.000209396621737683
5 0.0252662565269236
5 0.0388030255729916
5 0.0294422917292055
5 0.0141745402320474
5 0.000111209510361351
5 0.00451200543112762
5 0.000379411385275266
5 0.116906058614337
5 0.00107491684045253
5 0.00123699225040427
5 0.000600097994756198
5 0.00732215608903399
5 0.00345900149512868
5 0.00893916838188494
5 0.0101565106317313
5 0.0366938452658476
5 0.00459883940147652
5 0.00473716584330719
5 0.00332659518528586
5 0.0097497866148591
5 0.0014576379248356
5 0.00189067228406323
5 0.0122044170982254
5 0.0222579148253965
5 0.0127850881997836
5 0.0289916327396204
5 0.0072199353433133
5 0.00757083071794275
5 0.000913433729940196
5 0.0181943665850252
5 0.0607879515456993
5 0.0365071913167
5 0.00343665335757035
5 0.00163173480810924
5 0.000345660318710638
5 0.00633200977836257
5 0.00139521571630258
5 0.00446584160401974
5 0.00276991768704832
5 0.0355601424716874
5 0.0035906587890281
5 0.00350824710449241
5 0.0565309517274734
5 0.0299250211877027
5 0.0100039656136677
5 0.0223758019649037
5 0.000909507758151932
5 0.0071077902288567
5 0.0001636959834728
5 0.0361985752885706
5 0.0109858555332506
5 1.23484835934367e-05
5 0.000863231386140178
5 0.000121280651435293
5 0.0207393729705474
5 0.00105166014301226
5 0.00012215619469486
5 0.00108471762319789
5 0.0485014133442132
5 0.00480997776983225
5 0.00273840622313242
5 0.00313017181654259
5 0.00374186659161751
5 0.00093982913123272
5 0.000542492019196882
5 0.00496744943246283
5 0.0819579697123632
5 0.00196935889768989
5 0.000452026200079035
5 0.00323015819153492
5 0.00139890646133424
5 0.00946478862649021
5 0.00239475261519584
5 0.00236085159475697
5 0.000227291648560344
5 0.000585908233445466
5 0.00227915614354347
5 0.0474923097705643
5 0.0410744328763718
5 0.0383680926739618
5 0.00418128994685573
5 0.0496331816904719
5 0.000572547256062734
5 0.0050629703078139
5 0.00655456552782805
5 0.00466943453563707
5 0.0163050478501794
5 0.00153243152295851
5 0.00664329423254499
5 0.0101445325197298
5 0.00446674314182816
5 0.004060793842408
5 0.000366715071072295
5 0.00159745512247471
5 0.000253442045597477
5 0.00554153823275823
5 0.00357110378105729
5 0.00362308561587208
5 0.00284901558538957
5 2.02360084268995e-05
5 0.00301884348607961
5 0.00228178696015379
5 0.000476890065982821
5 0.0165163197476532
5 0.0273888785813897
5 0.0201301643658065
5 0.00292569066981622
5 0.0159954846493022
5 0.0260717656156121
5 0.0494676315995236
5 0.00786561579214353
5 0.000255983842880907
5 0.0202861147641583
5 0.0063191228540498
5 0.012734304556887
5 0.0675013930403756
5 0.00168776803987985
5 0.00029742888541779
5 0.0214748433917522
5 0.0153412794517057
5 0.00529245341197096
5 0.000209882798910635
5 0.0038601947874362
5 0.000688994773143013
5 0.052551625487317
5 2.5041802590045e-05
5 0.0172308385467772
5 0.0190457697257728
5 0.0416526379128227
5 0.00486669934510357
5 0.000606734668164567
5 0.00697568503611824
5 0.00190065623444505
5 0.00993607973577583
5 0.00306309359853407
5 0.00143995688460827
5 0.00527475998450601
5 0.034582834027967
5 0.000389697008493677
5 0.000644638888313433
5 0.015568385421104
5 0.000693790082603578
5 0.016980971034749
5 0.00168785449044102
5 0.00522430504919202
5 0.00378033613843187
5 0.015510003271772
5 0.0263996400406888
5 0.00388095707049191
5 0.0591762590282247
5 0.00573291674774334
5 0.000268535747843343
5 0.000495307516391339
5 0.0277684559479881
5 0.0103330073909451
5 0.0161451758928469
5 0.00237720448725418
5 0.0086076617757865
5 0.0027336996055032
5 0.00826289755683963
5 0.000602700338297193
5 0.00271957480742195
5 0.00574703095583
5 0.00259065619485836
5 0.00980125851750788
5 0.000605416110106569
5 0.0533837023504414
5 0.0314644910873283
5 0.000525816073234574
5 0.00370777168999488
5 0.0106951591113664
5 0.00778740439510095
