20 0.000205305512223541
20 0.0400340858794616
20 0.0136213060548166
20 0.000619440524865813
20 0.0140651878004592
20 0.0418823680724638
20 0.0122959082726372
20 0.0622969069137524
20 0.00813434638189582
20 0.0069017532790472
20 0.0193835754665323
20 0.0269501134106543
20 0.0217565492328903
20 0.0344225678260258
20 0.0338720315561231
20 0.00352141329744058
20 0.00438795939563538
20 0.0155201126019395
20 0.0269072698762975
20 0.00739843752060667
20 0.0486556737001355
20 0.0144969107063562
20 0.0144823080857509
20 0.0058279763437758
20 0.00366686965368797
20 0.0267496762105378
20 0.019123122548952
20 0.0389696733218229
20 0.00132145344708781
20 0.0358488090728556
20 0.0083566978478394
20 0.00670413880426576
20 0.0137049224290096
20 0.00867646382087318
20 0.0252986086886268
20 0.0141376629158933
20 0.0132222940459489
20 0.0165721475829907
20 0.0720386674698378
20 0.0783000553100674
20 0.0410404801443438
20 0.0166126100091582
20 0.0081328330175983
20 0.0260685541403192
20 0.011743953266099
20 0.0464740184092038
20 0.0373252318842441
20 0.00873008503941474
20 0.00342390534647946
20 0.0020858332640374
20 0.0061051429828886
20 0.00900364953752139
20 0.0044524747004845
20 0.00357351420889928
20 0.0623970196599786
20 0.0298510113235235
20 0.00120698634157932
20 0.0278816605553452
20 0.0119382382520863
20 0.0497187675416505
20 0.0104393837980516
20 0.00429092727163449
20 0.00744026863460147
20 0.0189094578532459
20 0.0406910535998619
20 0.00897390732158083
20 0.0217221505738697
20 0.0224835266462165
20 0.0364735751161062
20 0.0119631774500144
20 0.00823096146516335
20 0.0390299762552465
20 0.0131882785124037
20 0.00203948439157168
20 0.0252881773686234
20 0.0177446072433002
20 0.0118188927581866
20 0.0238359684971112
20 0.0125582281991185
20 5.29659409312449e-05
20 0.0180271153245487
20 0.0357863491384732
20 0.00933363743614536
20 0.00561089725829967
20 0.0156107286071241
20 0.0199590316951984
20 0.00166584032927827
20 0.0273245129955391
20 0.00235210163142996
20 0.000882249309992087
20 0.0616522699159194
20 0.0341486330779182
20 0.0125846806036423
20 0.0115270733723312
20 0.0124996596981852
20 0.0237956768583972
20 0.0102172845009726
20 0.00918791517253791
20 0.00635519820755141
20 0.0102212452381845
20 0.00778872055827234
20 6.33593830476418e-05
20 0.00572551948681408
20 7.93703759322343e-05
20 0.0443470526885637
20 0.0419937361216633
20 0.002555721134082
20 0.0119303941354976
20 0.0212322931937606
20 0.0288744629813475
20 0.0129897674408838
20 0.0120462270770521
20 0.021347117590265
20 0.0112269337667664
20 0.00823379217773568
20 0.000945773385512678
20 0.0168133672203167
20 0.0101076281242784
20 0.00214953188713357
20 0.0146052624705393
20 0.0166504481708484
20 0.0200533843742409
20 0.0210307615030042
20 0.00890825195745532
20 0.000673974772505931
20 0.00845150225108298
20 0.0235260581777442
20 0.00231365095586718
20 0.00400220694668084
20 0.00628326595820876
20 0.0163249152593529
20 0.0169878918822377
20 0.0123063990058313
20 0.00245456465252238
20 0.00771087466650619
20 0.0100640945841161
20 0.0303339131057313
20 0.0224255021797899
20 0.014248432958223
20 0.00929739015018332
20 0.0276075096156602
20 0.00877830122081607
20 0.0337978310273087
20 0.0177549806096337
20 0.0376804089919132
20 0.00229568980276275
20 0.0159876944948937
20 0.0269206337514898
20 0.00221922285018152
20 0.00320641784717683
20 0.0034881719407936
20 0.00914819004288541
20 0.00102719657632063
20 0.0126820028402151
20 0.000970382148672552
20 0.0225362109862231
20 0.0151321907077598
20 0.0274009715726207
20 0.0159444157202869
20 0.0262477009407969
20 0.00743262234762785
20 0.0266741631979493
20 0.00195815419438313
20 0.0160507087849397
20 0.0111057981873047
20 0.0511113024502671
20 0.0323679937311825
20 0.0108122195185855
20 0.00980939596713843
20 0.00817808125294343
20 0.00690764703921741
20 0.0209048857601835
20 0.00466778974438942
20 0.026222548603456
20 0.00479865290826818
20 0.0310455891667098
20 0.0286138210855847
20 0.030610689492349
20 0.00747066892553803
20 0.0100247486217177
20 0.0381667700239213
20 0.0447839798942695
20 0.0220398191738445
20 0.0213412188100173
20 0.051238835980141
20 0.0232392823374012
20 0.0643434256902891
20 0.0367186690371176
20 0.0324737282095256
20 0.0154627012155204
20 0.0257701896614264
20 0.00930074420236215
20 0.000676419471981203
20 0.0665469426807014
20 0.00319707623324835
20 0.0185052028937082
20 0.0186347182343546
20 0.0107702850627158
20 0.0155829993819752
20 0.00492591688442107
