200 0.000719538655529512
200 0.00414335144130581
200 0.00209085644568911
200 0.00138509458258452
200 0.00123825433013353
200 0.000417232548900706
200 0.00328267957228312
200 0.000566914507348844
200 0.00294976712505271
200 0.000729633979970357
200 0.000297823812192476
200 0.000396832959397798
200 0.00552253110519698
200 0.00452289326263347
200 0.00616725763823319
200 0.00206058290750796
200 0.00179410743882528
200 0.00214592920107397
200 0.00539926940852048
200 0.000817699277953587
200 0.00138296561997507
200 0.00101870191625273
200 0.00333609279422233
200 0.00355013019813967
200 0.00520369353292139
200 0.000157324588321258
200 0.00293410392262043
200 0.00284157729476968
200 0.00136049542656287
200 0.00310546263974366
200 0.00221911502133401
200 0.00256212882477404
200 0.000900998631674226
200 0.000520948417198278
200 0.00305041107546344
200 0.00106255535054512
200 0.00328654370023745
200 0.000251887905478482
200 0.000547451357302948
200 0.00331181929318738
200 0.0029039677484339
200 0.00141568397249326
200 0.00247588544535649
200 0.0023530715145045
200 0.00264401262078791
200 0.00460985566070714
200 0.000232148678333203
200 0.0042268020433303
200 0.00122643661061237
200 0.00235819176280284
200 0.00114610067839819
200 0.00432129033170606
200 0.00175445397492222
200 0.000765339034275934
200 0.00287729640159483
200 0.00111383378952354
200 0.000209505865404793
200 0.00105356369573726
200 0.00124209222117602
200 0.00335232771297728
200 0.00206466943383437
200 0.000305218077309841
200 0.00249741415872124
200 0.00315812989597897
200 0.00406520967050243
200 0.000815189956866012
200 0.00274773655630711
200 0.00254893584605685
200 0.00447055108931024
200 0.00285444660442176
200 0.000456319830854698
200 0.00136413668266254
200 0.00273609461579678
200 0.00101899660141559
200 0.00115009064830669
200 0.00636409709369843
200 0.00099066783616578
200 0.000653529873043462
200 0.000639889736034181
200 0.00522892525480186
200 0.000527750525771951
200 0.000343008846883515
200 0.00126782420806051
200 0.00219401340326252
200 0.000629100499540866
200 0.00245269850872931
200 0.000192830006835698
200 0.00141712196071373
200 0.00666315135460213
200 0.00211842178867936
200 0.000601984170059052
200 0.00424927306166204
200 0.00192986015353486
200 0.00208300380483146
200 0.000649383308496596
200 0.00267695957691857
200 0.00253703818995557
200 0.00104372288780067
200 0.00309101946074395
200 0.00229642786728323
200 2.84810595647736e-05
200 0.00524950595416104
200 0.00164062288758218
200 0.00168157681876586
200 0.000888002084553761
200 0.00149288431079585
200 3.24660629819704e-05
200 0.00130003799427404
200 0.00286920578123615
200 0.00145062665003476
200 0.000516737761754757
200 0.00202595933371381
200 0.00171689297523839
200 0.000618041444941359
200 0.00202895609798261
200 0.0021901921474207
200 0.00380126765824147
200 0.000709863543348198
200 0.00122357847632644
200 0.00536624552924604
200 0.0040396333732411
200 0.000604500320309541
200 0.00190375958616947
200 0.000690146334016757
200 0.00219216773557374
200 0.00237370731069735
200 0.00441501311985999
200 0.00217095644683881
200 0.00243175620024951
200 0.0023349111534231
200 0.00175037268555976
200 0.000215860002800765
200 0.00290459339667127
200 0.000501480660090204
200 0.00330627730299375
200 0.00269733482055201
200 0.001524666936142
200 0.00257279408783637
200 0.00222792662968786
200 0.000735682477796396
200 0.000635394133233323
200 0.0023601101636068
200 0.00197939781115012
200 0.00239799514045971
200 0.00211235202408341
200 0.00184590995838542
200 0.00154482360844025
200 0.00131861675508995
200 0.000222137089969825
200 4.23083663917805e-05
200 0.00193840680969311
200 7.5055682059108e-05
200 0.000364573323412908
200 0.00377463598526174
200 0.00470123626653214
200 0.0029868679337714
200 2.82162841862399e-05
200 0.00266667147589619
200 0.00292132252843678
200 0.00100370069455627
200 0.000653677607935197
200 0.00167746094644501
200 0.00358989054074319
200 0.00309097849640871
200 0.000743846986338989
200 0.000523336945907271
200 0.00164673458005173
200 0.000652040728055334
200 0.00374531746006081
200 0.00107993752926239
200 0.000889234915056154
200 0.000337392157830486
200 0.00452425571255962
200 0.00260301602038554
200 0.00125194455776783
200 0.000576527817520636
200 0.00448922991585413
200 0.00160126311745104
200 0.00426900084715879
200 0.0026055188634715
200 0.000168996935157793
200 0.00377834967116372
200 0.00182260879652665
200 0.000249940320656948
200 0.00205587808369884
200 0.000723283217668408
200 0.000557687886009091
200 0.00390180549496897
200 0.000171899718046178
200 0.00111370907488694
200 0.00460204317022796
200 0.00446177283333147
200 0.00167335266945187
200 0.00225701351247235
200 0.00368748217951105
200 0.000433117016223532
200 0.00187148207230218
200 0.00092992593639236
200 0.00240805099309231
200 0.00178679075025477
