20 0.0404436626273948
20 0.019094221690229
20 0.0283342673078007
20 0.0188146299954808
20 0.0199800059583508
20 0.0098570173153234
20 0.0912221575598614
20 0.0225237497951191
20 0.0109621558231678
20 0.099949699512694
20 0.0541035156117738
20 0.0199647356882683
20 0.0780125726815607
20 0.0094113287844574
20 0.0502673547540621
20 0.094418502656729
20 0.102698632244281
20 0.011439107748535
20 0.00621694725148687
20 0.0166483254382675
20 0.0607516194665795
20 0.0349381206913735
20 0.048157146628346
20 0.0656159481231547
20 0.00544661740077268
20 0.0320062392025609
20 0.0507628108960238
20 0.00799462924360466
20 0.0391111621607959
20 0.041683728686036
20 0.0433301584307191
20 0.012726850467008
20 0.0408937664714456
20 0.0179355334488029
20 0.0582204802982543
20 0.0133116960204299
20 0.0158616091203397
20 0.0309665802951907
20 0.0292526426545191
20 0.00853941954587673
20 0.0666228203802253
20 0.0629726656586289
20 0.0131444819789913
20 0.0196135840594272
20 0.0751349264830957
20 0.0727083631013462
20 0.0331991605433257
20 0.000150319400656122
20 0.0186507777295153
20 0.0169159312363527
20 0.0309774717435294
20 0.0170039364432472
20 0.0325240729031168
20 0.0326308586029954
20 0.0642403367379974
20 0.0706190610517306
20 0.0432876422446768
20 0.0323121839531843
20 0.0195503490892762
20 0.00542740148524109
20 0.0413858154244254
20 0.0318348010348962
20 0.0239784273671041
20 0.0185520234418491
20 0.109655031609536
20 0.0253639301687515
20 0.078022331182149
20 0.122786985619833
20 0.0398710677344521
20 0.0575998412493363
20 0.00477301683719545
20 0.0518665003920868
20 0.0384547446536461
20 0.0442602599346555
20 0.0607392832445318
20 0.0233025590338138
20 0.0815202074480748
20 0.0603601864777375
20 0.0312597755902118
20 0.0618433447457565
20 0.0669086690021094
20 0.0381882850533245
20 0.0160750052537969
20 0.0322233546862762
20 0.00432852862881908
20 0.0351807777376672
20 0.0475883196708612
20 0.0220239304129775
20 0.0339698310066917
20 0.00688520036850594
20 0.0750611428587851
20 0.0124198342264029
20 0.105133123029477
20 0.00723282247347645
20 0.00618537821641624
20 0.0420538084669216
20 0.0420840480351776
20 0.0297791266226209
20 0.0712137280233057
20 0.0435878007690595
20 0.0383304782392433
20 0.0396428316416301
20 0.0209161873558606
20 0.0432087192477766
20 0.0141533858019767
20 0.0708663869228864
20 0.0328789823773521
20 0.0442344199164646
20 0.0115654193855985
20 0.0619876813769405
20 0.0254729480073157
20 0.178431535865274
20 0.080222087395416
20 0.125553092925938
20 0.035930025573402
20 0.0224089163695642
20 0.0193874982397878
20 0.0442618070842929
20 0.00362364983268574
20 0.0676291788135794
20 0.00379017193679854
20 0.0594867526853345
20 0.0448282430760869
20 0.0108381949214044
20 0.0079430355629421
20 0.0155502021089363
20 0.0240928843523821
20 0.0093538759963861
20 0.0671860991881747
20 0.00191386622745271
20 0.0149001215317053
20 0.102933376169314
20 0.0912607766504167
20 0.093155412987065
20 0.0717203338642691
20 0.0121762369503506
20 0.00761503750496803
20 0.0391183854805778
20 0.0105616367241933
20 0.0570444757149872
20 0.0875207037490311
20 0.0598145095767717
20 0.0688875520495982
20 0.0691312899249973
20 0.0071212182096915
20 0.0335085400296146
20 0.0370276062968844
20 0.120497957151952
20 0.00716697961900613
20 0.0425945911597303
20 0.00291361166533547
20 0.11303889278986
20 0.0252875929083607
20 0.000322516453791798
20 0.0397732064107689
20 0.0242772497204018
20 0.0422015644651561
20 0.0157849153590325
20 0.062331400474931
20 0.125410617836674
20 0.0441816863753133
20 0.0595949443270817
20 0.0613795103287137
20 0.00744298702083322
20 0.0146020888701446
20 0.0760921498629227
20 0.00690075153608203
20 0.0914482766536219
20 0.0512552555400002
20 0.0628758433800922
20 0.136659943755836
20 0.0478571257114393
20 0.0256159118194171
20 0.0579512748964748
20 0.00786150256798991
20 0.0607490503877545
20 0.0482118221549516
20 0.201440775150659
20 0.0125132044439171
20 0.0643283053304853
20 0.00991928449831797
20 0.0391419091809401
20 0.0758622700803814
20 0.0196066635176014
20 0.0677297424135427
20 0.0379295827992257
20 0.036595312771248
20 0.0743721037849089
20 0.0190241057406408
20 0.0265556782751466
20 0.019027816942938
20 0.00391536745978086
20 0.0528097832062602
20 0.145641099827345
20 0.0455946008340121
20 0.0112324199404662
20 0.0524107003398996
20 0.0896098261628496
20 0.0115885157492476
20 0.0146382724114324
