5 0.00261669687700904
5 0.0158228386131924
5 0.000406518758952477
5 0.00228008121054912
5 0.024858498809775
5 0.00104645694027463
5 0.0474940988050791
5 0.0298218021617991
5 0.0209837935107527
5 0.00435699168663832
5 0.00339894060943596
5 0.0918240835833408
5 0.0204679663109722
5 0.00475762746238788
5 0.0165536301182259
5 0.0740113696417505
5 0.0385962298006961
5 0.0537648717165464
5 0.0729793810360636
5 0.0137619794863445
5 0.00871732699496279
5 0.00236438065283091
5 0.0519955531451643
5 0.0168682285055844
5 0.0147354970047516
5 0.0183323966065728
5 0.00597442701022448
5 0.061042420916209
5 0.0776591256798284
5 0.0981244978858008
5 0.0164740210927013
5 0.0189243067615745
5 0.0317578134807147
5 0.0303189121826851
5 0.0486386599266686
5 0.0596111240210856
5 0.035344319599486
5 0.0402679593927429
5 0.0643307813946909
5 0.00801260960065407
5 0.0265836367060474
5 0.0336668828745013
5 0.00368255051517403
5 0.0502652955374542
5 0.0174484347958607
5 0.0354707102316499
5 0.0331681810029487
5 0.0350304195428518
5 0.0205451907911039
5 0.00673425631985581
5 0.0518060123449929
5 0.0509575275902354
5 0.0360145664575923
5 0.0260390635512794
5 0.0213106980075248
5 0.0404940190491835
5 0.0247651429648688
5 0.0507113456933477
5 0.0176016336070441
5 0.00645677285353558
5 0.00866422927701006
5 0.00345477168042686
5 0.00421951804486875
5 0.00938152272781075
5 0.00523193998355122
5 0.0107960448110692
5 0.107484357367077
5 0.00919734197087417
5 0.0527193841866362
5 0.0225887631301412
5 0.0256375308273206
5 0.0107996085313618
5 0.158097860574589
5 0.0341893564350357
5 0.0113138170215751
5 0.0195443322862312
5 0.0142886025036245
5 0.00438097011049636
5 0.0166894546030424
5 0.00783004161515202
5 0.0479664372942121
5 0.0138868830814626
5 0.0182488677230206
5 0.0266661213117365
5 0.0525480604364765
5 0.0995261868434822
5 0.0251499372070872
5 0.0146503508458945
5 0.0737348975534455
5 0.00491725491965512
5 0.00250994254827855
5 0.0481866620039352
5 0.0163500430313574
5 0.0293989197812554
5 0.00669205160162887
5 0.0443725602344112
5 0.00959900262509052
5 0.0221115317337028
5 0.0167920592285854
5 0.010709374399153
5 0.00717306742755643
5 0.0206624422411711
5 0.0186356985706745
5 0.0137095138711831
5 0.00729377375497184
5 0.0188584761312435
5 0.0262785405319007
5 0.05203872482845
5 0.0571239841780293
5 0.00713725277394557
5 0.0118967973848106
5 0.00880633801450579
5 0.0561950409269729
5 0.00359609364081097
5 0.0881386055122807
5 0.0480284152577377
5 0.0464222027012147
5 0.00584982856532902
5 0.0761385420682005
5 0.03519784648373
5 0.00867717478637781
5 0.00328263027436227
5 0.063609068057753
5 0.0300854298353101
5 0.0338813114150319
5 0.0521170003421987
5 0.00701968266790346
5 0.0335176662931384
5 0.0272473856827087
5 0.059994263495694
5 0.0296685228535181
5 0.048365658075257
5 0.0267889533405459
5 0.099189782258826
5 0.00826211358787218
5 0.0571851413943089
5 0.108607765525527
5 0.0308773560373148
5 0.0318827469690172
5 0.157307292363226
5 0.0228612647727619
5 0.00804053886301196
5 0.0104500705754969
5 0.0289576435860278
5 0.0232407997258195
5 0.00723903194547659
5 0.00239007457824542
5 0.0359870177619092
5 0.00756789669172252
5 0.0987583456056543
5 0.0431679222099291
5 0.00589557700577681
5 0.048154853866687
5 0.0389218783626486
5 0.0526590522479608
5 0.00560165955428894
5 0.0278294645584771
5 0.093594516294315
5 0.113784378138893
5 0.00467814787053959
5 0.0177931019436811
5 0.0666741459920452
5 0.110359269703993
5 0.0765765106768545
5 0.00646560954725065
5 0.0167449787903803
5 0.0662395317911134
5 0.0159723479211935
5 0.00504211404096261
5 0.0289339785770219
5 0.000812650842682029
5 0.0353987579567614
5 0.0250265460695694
5 0.0359218881892588
5 0.0330309342501033
5 0.0663257064136958
5 0.0154423576970673
5 0.121776573373283
5 0.0233676117750278
5 0.0114875952270211
5 0.0874660113164728
5 0.0131380451134465
5 0.00755448246615216
5 0.0320333794139994
5 0.0386676774601098
5 0.0585705218281986
5 0.0131219318141295
5 0.21253329719844
5 0.0556390929640913
5 0.099873906990607
5 0.0471329003298213
5 0.0183772088400079
5 0.128435071246733
5 0.0797410243109616
5 0.0209336926832445
5 0.174467174267299
5 0.00154513622686169
5 0.0195194462501683
5 0.040735294594411
5 0.0366664865788527
5 0.0162628899483245
5 0.0285479128202035
5 0.0249967843782887
5 0.0346904042315398
5 0.018411552127477
5 0.030490598019618
5 0.0781291391649579
5 0.0224668970807881
5 0.031939470782723
5 0.0573982051296323
5 0.0493778826661433
5 0.072578556177253
5 0.0232852203044308
5 0.00708302923259935
5 0.102646799723612
5 0.142780688451172
5 0.00535891773880884
5 0.00358256599860049
5 0.0397304961048162
5 0.0456187548818697
5 0.00421135160284871
5 0.00410564228334349
5 0.0411385071437698
5 0.0114200434061127
5 0.0424445655420504
5 0.0964873449430492
5 0.121018945112385
5 0.00366539852398167
5 0.0230478195060501
5 0.0104434453595952
5 0.00974330994749037
5 0.00158643143426481
5 0.0161311673140874
5 0.00662992415634217
5 0.108989376607755
5 0.0333560675510831
5 0.0450969055665957
5 0.0429096303846908
5 0.0299757872674522
5 0.0116798897282767
5 0.0041317750014138
5 0.0296800366477531
5 0.00417459657318417
5 0.0329480810534626
5 0.00592150621769935
5 0.00592640644908149
5 0.00822045515834872
5 0.0251737006721759
5 0.0595465588870469
5 0.000950714223825617
5 0.0222501035169048
5 0.0237497919548016
5 0.107192704173447
5 0.0907334808127036
5 0.010477807464307
5 0.0591240210241086
5 0.0337444321175001
5 0.0351153623538399
5 8.26342063096309e-05
5 0.048409483003456
5 0.0299882563071768
5 0.0020907062582846
5 0.0172103079147994
5 0.0248396535369393
5 0.0269229328495793
5 0.036597009094566
5 0.00070755235230371
5 0.0174304840243647
5 0.0688257646333499
5 0.0113310852871145
5 0.00775912960464737
5 0.0929895270060015
5 0.0151879614629309
5 0.0509222672979387
5 0.0266707415416738
5 0.10526592780388
5 0.0123073524822788
5 0.0141678803772364
5 0.0209355906470393
5 0.0353928872521527
5 0.00678473321494396
5 0.0255005263943753
5 0.0317325478530861
5 0.0233976180334039
5 0.0599984975851192
5 0.010234631448959
5 0.0268085284735561
5 0.0348134055068072
5 0.0505563988110233
5 0.0426806222442742
5 0.0452710635983438
5 0.0145038869391837
5 0.023354556573374
5 0.0202000094446041
5 0.0120574967763478
5 0.0294331738714982
5 0.063355045766026
5 0.00358472091011752
5 0.0347623706403755
5 0.0565423482739306
5 0.0366627003196586
5 0.00641270367621127
5 0.00503427265774682
5 0.049077937010418
5 0.0289974699078985
5 0.00175687609578238
5 0.146608557457753
5 0.0145700774793689
5 0.0347756595437573
5 0.0125572432352634
5 0.0509330445678624
5 0.0296604641371177
5 0.0455668870164085
5 0.098530940060533
5 0.123774681432848
5 0.00812504786728629
5 0.0621796584114335
5 0.0269617751828149
5 0.00754916119644198
5 0.016891006881836
5 0.0572417523085654
5 0.00155233902781734
5 0.0225365419813403
5 0.0327508446664449
5 0.0362813880294529
5 0.00965484563298176
5 0.00193859428779332
5 0.0224345950753466
5 0.101559287626083
5 0.0852060699016292
5 0.0115796712098803
5 0.0354514037204533
5 0.0818284972615984
5 0.0857044957199391
5 0.0116273453175243
5 0.00541797141775133
5 0.0247749569308965
5 0.0537447622854179
5 0.0317934674162776
5 0.074695180345955
5 0.0395784767551691
5 0.0125072134091446
5 0.0293391712479755
5 0.0351197542375544
5 0.0369295015526931
5 0.093446680482568
5 0.0157343103981124
5 0.0156389229959898
5 0.0314401183849085
5 9.45865696545838e-05
5 0.0311030395605015
5 0.0207723032912134
5 0.0138693093174856
5 0.00169901993468951
5 0.043440839115386
5 0.0238874588635708
5 0.0188509636179388
5 0.0334348144775412
5 0.00393832904098451
5 0.0286105060725852
5 0.0718903198820142
5 0.118298360664808
5 0.0115670745732611
5 0.0495022404521569
5 0.00389615181655313
5 0.0922373001314214
5 0.0210436953034424
5 0.0413188762878779
5 0.0269793635033676
5 0.0141812994301829
5 0.00479052129938789
5 0.0106515391979842
5 0.0216720975427791
5 0.0181592371173263
5 0.0187986374555123
5 0.0203461190894271
5 0.0131787527372091
5 0.0116730928850276
5 0.00834700981852776
5 0.00741103505617592
5 0.0051279719972286
5 0.0247835262096024
5 0.104140269077096
5 0.0427819765041915
5 0.0300951501959788
5 0.0131803080739998
5 0.0656228104081795
5 0.0535013489106769
5 0.0100421739142681
5 0.0659447981991217
5 0.0662651950168736
5 0.0602912081023484
5 0.00434470204723028
5 0.112868156937358
5 0.0279771947447225
5 0.00694173065813286
5 0.0184937530188145
5 0.0347876801690764
5 0.00904937566672835
5 0.0242086615764147
