500 0.00842161056770993
500 0.00822640317743442
500 0.0140063600946164
500 0.00103731619548103
500 0.0136312127303234
500 0.0173434462922312
500 0.00764968802986555
500 0.0167713444261266
500 0.0172395038727575
500 0.016817003947898
500 0.0157959832925509
500 0.00378063531208951
500 0.00432483124112082
500 0.013319169629192
500 0.00876669777964957
500 0.00920301071478861
500 0.00829170837653186
500 0.0152459898156217
500 0.0130863829786182
500 0.00134150335840695
500 0.0140121689941067
500 0.0195120058875665
500 0.00278752860252972
500 0.00645387484289762
500 0.0176009907223288
500 0.00849575841843037
500 0.00574584396500528
500 0.0101304426908025
500 0.017163932248608
500 0.00317622981684821
500 0.0162807817422162
500 0.00992524431366307
500 0.0085158640417457
500 0.0171766234274645
500 0.00975617050620053
500 0.0130229615207371
500 0.00667805632932535
500 0.00111032209306587
500 0.0123080295812468
500 0.000237849762121329
500 0.00199780172866758
500 0.00106951715916769
500 0.0047386320872579
500 0.00322926625189062
500 0.00379477785497734
500 0.00271007740194688
500 0.00070888250613158
500 0.00375821800045367
500 0.00139158970170557
500 0.00444665569324059
500 0.00268190103856559
500 0.0249031929905244
500 0.00378149167046185
500 0.00468171477733051
500 0.0176655184835847
500 0.0102777952734284
500 0.00884257335511458
500 0.00160385673101664
500 0.0121127907206245
500 0.0215848290848214
500 0.00913859985705276
500 0.0143072991556529
500 0.0136273773204847
500 0.000542549853545763
500 0.00741058899766314
500 0.0192900425075272
500 0.0076829846281443
500 0.00129263814533284
500 0.000964791972646768
500 0.00947904818641899
500 0.00270854518716011
500 0.0149588394517754
500 0.00895316283778932
500 0.00729491729098935
500 0.000107499909728971
500 0.000121637194269896
500 0.00292810607690712
500 0.0197613314688497
500 0.00129452795413199
500 0.00616584422517913
500 0.0105317780786325
500 0.0123259841260732
500 0.0163602063322622
500 0.0140708979721268
500 0.00289216925725156
500 0.0211938715730093
500 0.00390710084942291
500 0.00644217363728097
500 0.0132191191301065
500 0.00962798306216153
500 0.00025124558104492
500 0.010037799318331
500 0.00352338071790445
500 0.00651665921249931
500 0.0114104593144604
500 0.00953354659297921
500 0.00747077816223916
500 0.00636053233162218
500 0.0124558075337207
500 0.00226706256019763
500 0.00305253582038769
500 0.0068501666800584
500 0.00790860879611875
500 0.0039309794115423
500 0.00251461996840711
500 0.00999486201677533
500 0.00113960495928614
500 0.00550146051470204
500 0.0021476691171
500 0.0129175408992161
500 0.0201230472403216
500 0.00199879280349168
500 0.00441464911411942
500 0.00260488633543486
500 0.0025251707444638
500 0.00630191053719591
500 0.00255845104690701
500 0.00457253592084287
500 0.00489676181769892
500 0.010002798809798
500 0.0128629161775595
500 0.00712920680885405
500 0.0160013287169525
500 0.0148462005412946
500 0.0126773878191494
500 0.00872058929004463
500 0.0124094561397375
500 0.00777572351801169
500 0.00181380821534757
500 0.0118956954344156
500 0.0102124277280966
500 0.00718504010835565
500 0.0124217893537541
500 0.00753313993047422
500 6.23928158184865e-05
500 0.00125273183449411
500 0.0261814733740053
500 0.013937505679761
500 0.00684837132247526
500 0.00924032385461791
500 0.0169061680137685
500 0.00223418056892208
500 0.0114278944440308
500 0.0117623872585086
500 0.0245194192318735
500 0.0150815911886447
500 0.0206541857995488
500 0.0130326977316639
500 0.00905371973957921
500 0.00722757393896223
500 0.0224502777687956
500 0.0219978372364034
500 0.00250612925589118
500 0.0106429848446113
500 0.00571413455646033
500 0.0109262691787302
500 0.00185393402535648
500 0.0225082767066658
500 0.00518693013682001
500 0.00251550853157557
500 0.019535362594945
500 0.00752382729453221
500 0.0168591280594172
500 0.00723155586972504
500 0.00630777986344027
500 0.00563438202948536
500 0.00237630856982957
500 0.0172651752184417
500 0.0104371852765974
500 0.01532958653095
500 0.00669961053601192
500 0.0112782580091588
500 0.0223374642530677
500 0.00204347305376326
500 0.00260831637941185
500 0.00380544981120968
500 0.00621757797886275
500 0.0157092859803695
500 0.000184129383321919
500 0.0273165723568838
500 0.00562695764606217
500 0.0111664731880876
500 0.0103028697509071
500 0.000847335227463958
500 0.00329320673803698
500 0.0159619032689938
500 0.00798626382308053
500 0.0035583331160883
500 0.0071647910166585
500 0.00236062645803477
500 0.00663756612517468
500 0.0128319813105195
500 0.00135557237559493
500 0.00726174984499352
500 0.0145210594428271
500 0.0141445221111065
500 0.00404365465724767
500 0.0128041936500314
500 0.00527675119010552
500 0.016939209122488
